Project 1
…
## ── Conflicts ────────────────────────────────────────── tidyverse_conflicts() ──
## x dplyr::filter() masks stats::filter()
## x dplyr::lag()    masks stats::lag()

project_1_data_20_21 <- read_excel("project 1 data 20-21.xlsx")
project_1_data_21_22 <- read_excel("project 1 data 21-22.xlsx")
NBA20_21 <- project_1_data_20_21
NBA21_22 <- project_1_data_21_22
NBA20_21

## # A tibble: 30 × 27
##    Team              `Games Played`  Wins Losses `Win %` `Minutes Played` Points
##    <chr>                      <dbl> <dbl>  <dbl>   <dbl>            <dbl>  <dbl>
##  1 Brooklyn Nets                 37    24     13   0.649             48.7   121.
##  2 Milwaukee Bucks               36    22     14   0.611             48     119.
##  3 Utah Jazz                     36    27      9   0.75              48.1   117.
##  4 Denver Nuggets                36    21     15   0.583             48.7   116.
##  5 New Orleans Peli…             36    15     21   0.417             48.3   116.
##  6 Chicago Bulls                 34    16     18   0.471             48.4   115 
##  7 LA Clippers                   38    24     14   0.632             48     115.
##  8 Washington Wizar…             34    14     20   0.412             48.1   115.
##  9 Sacramento Kings              36    14     22   0.389             48.1   115.
## 10 Philadelphia 76e…             36    24     12   0.667             48.4   115.
## # … with 20 more rows, and 20 more variables: `Field Goals Made` <dbl>,
## #   `Field Goals Attempted` <dbl>, `Field Goal %` <dbl>,
## #   `Three Points Made` <dbl>, `Three Points Attempted` <dbl>,
## #   `Three Point %` <dbl>, `Free Throws Made` <dbl>,
## #   `Free Throws Attempted` <dbl>, `Free Throw %` <dbl>,
## #   `Offensive Rebounds` <dbl>, `Defensive Rebounds` <dbl>, Rebounds <dbl>,
## #   Assists <dbl>, Turnovers <dbl>, Steals <dbl>, Blocks <dbl>, …

NBA21_22

## # A tibble: 30 × 27
##    Team              `Games Played`  Wins Losses `Win %` `Minutes Played` Points
##    <chr>                      <dbl> <dbl>  <dbl>   <dbl>            <dbl>  <dbl>
##  1 LA Clippers                   61    30     31   0.492             48.2   107.
##  2 Boston Celtics                60    34     26   0.567             48.7   109.
##  3 Charlotte Hornets             60    29     31   0.483             48.6   114.
##  4 Indiana Pacers                60    20     40   0.333             48.5   109.
##  5 Memphis Grizzlies             60    41     19   0.683             48.3   114.
##  6 Milwaukee Bucks               60    36     24   0.6               48.2   113.
##  7 Orlando Magic                 60    13     47   0.217             48.1   103.
##  8 Sacramento Kings              60    22     38   0.367             48.3   110.
##  9 Brooklyn Nets                 59    31     28   0.525             48.2   111.
## 10 Chicago Bulls                 59    38     21   0.644             48.1   113.
## # … with 20 more rows, and 20 more variables: `Field Goals Made` <dbl>,
## #   `Field Goals Attempted` <dbl>, `Field Goal %` <dbl>,
## #   `Three Points Made` <dbl>, `Three Points Attempted` <dbl>,
## #   `Three Point %` <dbl>, `Free Throws Made` <dbl>,
## #   `Free Throws Attempted` <dbl>, `Free Throw %` <dbl>,
## #   `Offensive Rebounds` <dbl>, `Defensive Rebounds` <dbl>, Rebounds <dbl>,
## #   Assists <dbl>, Turnovers <dbl>, Steals <dbl>, Blocks <dbl>, …
…
Merging and Tidying

NBA20_21 %>%
  inner_join(NBA21_22, by = "Team", suffix = c(".2020-2021", ".2021-2022")) %>%
  pivot_longer(cols = c("Games Played.2020-2021":"+/-.2021-2022")) %>%
# this bit of code allowed me to separate each statistic depending on season and team, so that I could continue tidying the dataset
  separate(name, into = c("Statistic", "Season"), sep = "[.]") %>%
# this line allowed me to separate each variable from the season it was reporting on
  pivot_wider(names_from = Statistic,
              values_from = value) -> NBA_preallstar
# I then pivoted back to having more variables, finishing my tidying
NBA_preallstar

## # A tibble: 60 × 28
##    Team       Season `Games Played`  Wins Losses `Win %` `Minutes Played` Points
##    <chr>      <chr>           <dbl> <dbl>  <dbl>   <dbl>            <dbl>  <dbl>
##  1 Brooklyn … 2020-…             37    24     13   0.649             48.7   121.
##  2 Brooklyn … 2021-…             59    31     28   0.525             48.2   111.
##  3 Milwaukee… 2020-…             36    22     14   0.611             48     119.
##  4 Milwaukee… 2021-…             60    36     24   0.6               48.2   113.
##  5 Utah Jazz  2020-…             36    27      9   0.75              48.1   117.
##  6 Utah Jazz  2021-…             58    36     22   0.621             48     114.
##  7 Denver Nu… 2020-…             36    21     15   0.583             48.7   116.
##  8 Denver Nu… 2021-…             58    33     25   0.569             48.2   110.
##  9 New Orlea… 2020-…             36    15     21   0.417             48.3   116.
## 10 New Orlea… 2021-…             59    23     36   0.39              48.2   106.
## # … with 50 more rows, and 20 more variables: `Field Goals Made` <dbl>,
## #   `Field Goals Attempted` <dbl>, `Field Goal %` <dbl>,
## #   `Three Points Made` <dbl>, `Three Points Attempted` <dbl>,
## #   `Three Point %` <dbl>, `Free Throws Made` <dbl>,
## #   `Free Throws Attempted` <dbl>, `Free Throw %` <dbl>,
## #   `Offensive Rebounds` <dbl>, `Defensive Rebounds` <dbl>, Rebounds <dbl>,
## #   Assists <dbl>, Turnovers <dbl>, Steals <dbl>, Blocks <dbl>, …
…
NBA_preallstar %>%
  inner_join(NBAconferences, by = "Team") -> NBA_preallstar
NBA_preallstar

## # A tibble: 60 × 29
##    Team       Season `Games Played`  Wins Losses `Win %` `Minutes Played` Points
##    <chr>      <chr>           <dbl> <dbl>  <dbl>   <dbl>            <dbl>  <dbl>
##  1 Brooklyn … 2020-…             37    24     13   0.649             48.7   121.
##  2 Brooklyn … 2021-…             59    31     28   0.525             48.2   111.
##  3 Milwaukee… 2020-…             36    22     14   0.611             48     119.
##  4 Milwaukee… 2021-…             60    36     24   0.6               48.2   113.
##  5 Utah Jazz  2020-…             36    27      9   0.75              48.1   117.
##  6 Utah Jazz  2021-…             58    36     22   0.621             48     114.
##  7 Denver Nu… 2020-…             36    21     15   0.583             48.7   116.
##  8 Denver Nu… 2021-…             58    33     25   0.569             48.2   110.
##  9 New Orlea… 2020-…             36    15     21   0.417             48.3   116.
## 10 New Orlea… 2021-…             59    23     36   0.39              48.2   106.
## # … with 50 more rows, and 21 more variables: `Field Goals Made` <dbl>,
## #   `Field Goals Attempted` <dbl>, `Field Goal %` <dbl>,
## #   `Three Points Made` <dbl>, `Three Points Attempted` <dbl>,
## #   `Three Point %` <dbl>, `Free Throws Made` <dbl>,
## #   `Free Throws Attempted` <dbl>, `Free Throw %` <dbl>,
## #   `Offensive Rebounds` <dbl>, `Defensive Rebounds` <dbl>, Rebounds <dbl>,
## #   Assists <dbl>, Turnovers <dbl>, Steals <dbl>, Blocks <dbl>, …
…
I calculated the mean win percentage for each conference in each season. I found that the Western conference had a higher win percentage than the East both seasons. I then looked to see which team in each conference played the most games before the All-Star break in 2021-2022. The LA Clippers played the most in the West with 61 games, and five Eastern teams had played 60 games: the Bucks, Pacers, Hornets, and the Celtics.

NBA_preallstar %>%
  filter(Season == "2020-2021") %>%
  select(Team, `Field Goal %`, `Three Point %`, `Free Throw %`) -> NBA_scorepercent
# after creating this new data frame, I used it to find out which teams were more successful in shooting
NBA_scorepercent %>%
  arrange(`Field Goal %`)

## # A tibble: 30 × 4
##    Team                   `Field Goal %` `Three Point %` `Free Throw %`
##    <chr>                           <dbl>           <dbl>          <dbl>
##  1 Orlando Magic                    43.2            35.6           79.1
##  2 Minnesota Timberwolves           43.5            34.6           76.4
##  3 Houston Rockets                  43.7            33.3           75.6
##  4 Detroit Pistons                  44.2            35.2           77.4
##  5 Portland Trail Blazers           44.5            38.2           82.5
##  6 Oklahoma City Thunder            44.6            34             73.5
##  7 Toronto Raptors                  45.3            38.3           83.2
##  8 Atlanta Hawks                    45.4            36.2           82.2
##  9 Cleveland Cavaliers              45.4            34.6           72.5
## 10 New York Knicks                  45.5            37.2           77.7
## # … with 20 more rows

NBA_scorepercent %>%
  arrange(`Three Point %`)

## # A tibble: 30 × 4
##    Team                   `Field Goal %` `Three Point %` `Free Throw %`
##    <chr>                           <dbl>           <dbl>          <dbl>
##  1 Houston Rockets                  43.7            33.3           75.6
##  2 Oklahoma City Thunder            44.6            34             73.5
##  3 Washington Wizards               46              34.4           76.4
##  4 Minnesota Timberwolves           43.5            34.6           76.4
##  5 Cleveland Cavaliers              45.4            34.6           72.5
##  6 Dallas Mavericks                 46.5            35             78.3
##  7 LA Lakers                        48.1            35.1           74.5
##  8 Detroit Pistons                  44.2            35.2           77.4
##  9 Miami Heat                       46.2            35.3           79.5
## 10 Memphis Grizzlies                46.4            35.5           79.3
## # … with 20 more rows

NBA_scorepercent %>%
  arrange(`Free Throw %`)

## # A tibble: 30 × 4
##    Team                   `Field Goal %` `Three Point %` `Free Throw %`
##    <chr>                           <dbl>           <dbl>          <dbl>
##  1 Sacramento Kings                 48              36.9           71.8
##  2 Cleveland Cavaliers              45.4            34.6           72.5
##  3 New Orleans Pelicans             48.4            35.9           73.2
##  4 Milwaukee Bucks                  48.5            38.8           73.5
##  5 Oklahoma City Thunder            44.6            34             73.5
##  6 LA Lakers                        48.1            35.1           74.5
##  7 Houston Rockets                  43.7            33.3           75.6
##  8 Boston Celtics                   46.7            37.3           76.3
##  9 Washington Wizards               46              34.4           76.4
## 10 Minnesota Timberwolves           43.5            34.6           76.4
## # … with 20 more rows

I also looked into the scoring percentages of all 30 teams in the 2020-2021 season. Then, I looked into which teams had the lowest percentage in each category. The Orlando Magic had the lowest Field Goal % at 43.2%, the Houston Rockets had the lowest Three Point % at 33.3%, and the Sacramento Kings had the lowest Free Throw % at 71.8%.

NBA_preallstar %>%
  mutate("Average Points/Minute" = Points/`Minutes Played`)

## # A tibble: 60 × 30
##    Team       Season `Games Played`  Wins Losses `Win %` `Minutes Played` Points
##    <chr>      <chr>           <dbl> <dbl>  <dbl>   <dbl>            <dbl>  <dbl>
##  1 Brooklyn … 2020-…             37    24     13   0.649             48.7   121.
##  2 Brooklyn … 2021-…             59    31     28   0.525             48.2   111.
##  3 Milwaukee… 2020-…             36    22     14   0.611             48     119.
##  4 Milwaukee… 2021-…             60    36     24   0.6               48.2   113.
##  5 Utah Jazz  2020-…             36    27      9   0.75              48.1   117.
##  6 Utah Jazz  2021-…             58    36     22   0.621             48     114.
##  7 Denver Nu… 2020-…             36    21     15   0.583             48.7   116.
##  8 Denver Nu… 2021-…             58    33     25   0.569             48.2   110.
##  9 New Orlea… 2020-…             36    15     21   0.417             48.3   116.
## 10 New Orlea… 2021-…             59    23     36   0.39              48.2   106.
## # … with 50 more rows, and 22 more variables: `Field Goals Made` <dbl>,
## #   `Field Goals Attempted` <dbl>, `Field Goal %` <dbl>,
## #   `Three Points Made` <dbl>, `Three Points Attempted` <dbl>,
## #   `Three Point %` <dbl>, `Free Throws Made` <dbl>,
## #   `Free Throws Attempted` <dbl>, `Free Throw %` <dbl>,
## #   `Offensive Rebounds` <dbl>, `Defensive Rebounds` <dbl>, Rebounds <dbl>,
## #   Assists <dbl>, Turnovers <dbl>, Steals <dbl>, Blocks <dbl>, …
…
